{
  "$schema": "https://raw.githubusercontent.com/jetpack-io/devbox/0.10.4/.schema/devbox.schema.json",
  "packages": [
    "ansible@latest",
    "nano@latest"
  ],
  "shell": {
    "init_hook": [
      "echo 'Welcome to devbox!' > /dev/null"
    ],
    "scripts": {
      "test": [
        "echo \"Error: no test specified\" && exit 1"
      ]
    }
  }
}
